patology;case_n;case_p
Cardiopatia ischemica;145;30.1
Fibrillazione atriale;106;22.0
Ictus;54;11.2
Ipertensione arteriosa;355;73.8
Diabete mellito;163;33.9
Demenza;57;11.9
BPCO;66;13.7
Cancro attivo negli ultimi 5 anni;94;19.5
Epatopatia cronica;18;3.7
Insufficienza renale cronica;97;20.2
