Regioni, N, %
Lombardia, 19834, 55.5
Emilia-Romagna, 4525, 12.7
Veneto, 3645, 10.2
Marche, 1685, 4.7
Liguria, 915, 2.6
Toscana, 878, 2.5
Piemonte, 747, 2.1
Campania, 607, 1.7
Puglia, 458, 1.3
Bolzano, 428, 1.2
Lazio, 424, 1.2
Friuli Venezia Giulia, 386, 1.1
Trento, 348, 1.0
Abruzzo, 278, 0.8
Sicilia, 224, 0.6
Umbria, 143, 0.4
Sardegna, 106, 0.3
Calabria, 53, 0.1
Molise, 32, 0.1
Basilicata, 10, 0.0
Valle d'Aosta, 5, 0.0